<?xml version="1.0" standalone="no"?>
<!DOCTYPE svg PUBLIC "-//W3C//DTD SVG 1.1//EN" "http://www.w3.org/Graphics/SVG/1.1/DTD/svg11.dtd" >
<svg xmlns="http://www.w3.org/2000/svg">
<metadata>Generated by IcoMoon</metadata>
<defs>
<font id="icomoon" horiz-adv-x="1024">
<font-face units-per-em="1024" ascent="960" descent="-64" />
<missing-glyph horiz-adv-x="1024" />
<glyph unicode="&#x20;" horiz-adv-x="512" d="" />
<glyph unicode="&#xe900;" glyph-name="container" d="M891.8 502.6h-138.2l-175.4 175.4c2 2.2 4 4.4 5.8 6.8 12.6 25.2 18.8 50.2 6.2 75.4-10.4 20.8-25 37.2-44 45.8v117.4c0 18.8-12.6 31.4-31.4 31.4s-31.4-12.6-31.4-31.4v-125.6c0-1 0-2.2 0.2-3.2 0-1-0.2-2-0.2-3.2 0-18.8 12.6-25.2 25.2-25.2 18.8 0 31.4-12.6 37.6-25.2 4.8-9.6 2.2-19.2-2-31.8-14 9.4-28 13-42 13-9.2 0-20-3-30.6-8.2-0.2 0.6-0.6 1.4-0.8 2-12.6 18.8-25.2 18.8-37.6 12.6-12.6-6.2-18.8-18.8-6.2-31.4 1.8-4.4 3.8-8.6 6-12.8l-175.6-175.6c-2-2-3.8-4.2-5.2-6.2h-114.2c-37.6 0-62.8-31.4-62.8-62.8v-439.8c0-37.6 25.2-62.8 62.8-62.8h753.8c37.6 0 62.8 25.2 62.8 62.8v439.6c0.2 37.8-25 63-62.8 63zM257.4 87.8c0-12.6-12.6-25.2-25.2-25.2s-25.2 12.6-25.2 25.2v264c0 12.6 12.6 25.2 25.2 25.2s25.2-12.6 25.2-25.2v-264zM470.6 646.6c7.8-3.8 16.4-5.8 25.6-5.8 12.6 0 25.2 2 37.4 6.6l144.8-144.8h-352l144.2 144zM401.8 87.8c0-12.6-12.6-25.2-25.2-25.2s-25.2 12.6-25.2 25.2v264c0 12.6 12.6 25.2 25.2 25.2s25.2-12.6 25.2-25.2v-264zM540 81.6c0-12.6-12.6-25.2-25.2-25.2s-25.2 12.6-25.2 25.2v263.8c0 12.6 12.6 25.2 25.2 25.2s25.2-6.2 25.2-25.2v-263.8zM678.2 81.6c0-12.6-12.6-25.2-25.2-25.2s-25.2 12.6-25.2 25.2v263.8c0 12.6 12.6 25.2 25.2 25.2s25.2-12.6 25.2-25.2v-263.8zM822.8 81.6c0-12.6-12.6-25.2-25.2-25.2s-25.2 12.6-25.2 25.2v263.8c0 12.6 12.6 25.2 25.2 25.2s25.2-6.2 25.2-25.2v-263.8z" />
</font></defs></svg>